The closest position from 0 to 214 is 0.020894353845406475
The closest position from 1 to 127 is 0.014325751763623138
The closest position from 2 to 654 is 0.012415344793266905
The closest position from 3 to 929 is 0.0013328074121219172
The closest position from 4 to 437 is 0.023866793324140163
The closest position from 5 to 263 is 0.03239930503644968
The closest position from 6 to 971 is 0.010760610439950547
The closest position from 7 to 548 is 0.015668819349913383
The closest position from 8 to 672 is 0.008130720551906431
The closest position from 9 to 319 is 0.01446484100861958
The closest position from 10 to 400 is 0.005939732999659848
The closest position from 11 to 932 is 0.01867684867430007
The closest position from 12 to 175 is 0.004839747587005823
The closest position from 13 to 29 is 0.013221258821386174
The closest position from 14 to 632 is 0.013836854181937811
The closest position from 15 to 404 is 0.018573703692850524
The closest position from 16 to 318 is 0.01563466893318765
The closest position from 17 to 189 is 0.02434425447711035
The closest position from 18 to 296 is 0.01849265927906965
The closest position from 19 to 854 is 0.008379159854514701
The closest position from 20 to 533 is 0.01882046171420977
The closest position from 21 to 741 is 0.020276704028763415
The closest position from 22 to 214 is 0.020574574766865427
The closest position from 23 to 878 is 0.01693535061813218
The closest position from 24 to 752 is 0.009020403811734403
The closest position from 25 to 979 is 0.018698783230805528
The closest position from 26 to 346 is 0.0025529482351088566
The closest position from 27 to 448 is 0.015164169687505277
The closest position from 28 to 499 is 0.008336699894072461
The closest position from 29 to 13 is 0.013221258821386174
The closest position from 30 to 877 is 0.018978339098081585
The closest position from 31 to 497 is 0.0062505464233363305
The closest position from 32 to 99 is 0.011730629647487846
The closest position from 33 to 569 is 0.01965539439924123
The closest position from 34 to 622 is 0.013696609998890759
The closest position from 35 to 357 is 0.004650545620441782
The closest position from 36 to 392 is 0.03197981466551849
The closest position from 37 to 62 is 0.02043014001960972
The closest position from 38 to 411 is 0.024556714060574157
The closest position from 39 to 150 is 0.021788860541186474
The closest position from 40 to 119 is 0.012320587099590255
The closest position from 41 to 812 is 0.023878874922235414
The closest position from 42 to 505 is 0.015476813301440217
The closest position from 43 to 399 is 0.015520457556700616
The closest position from 44 to 735 is 0.008572004106899069
The closest position from 45 to 80 is 0.033212283535819745
The closest position from 46 to 896 is 0.009047493982623347
The closest position from 47 to 826 is 0.003873249894018584
The closest position from 48 to 211 is 0.007699385398465868
The closest position from 49 to 858 is 0.007821768016559394
The closest position from 50 to 677 is 0.010694660373069978
The closest position from 51 to 286 is 0.02668859613323992
The closest position from 52 to 306 is 0.017347921977302547
The closest position from 53 to 102 is 0.0033684862879638047
The closest position from 54 to 368 is 0.023435154787612725
The closest position from 55 to 384 is 0.030936115498989503
The closest position from 56 to 424 is 0.02276146573095043
The closest position from 57 to 492 is 0.01732607298939989
The closest position from 58 to 226 is 0.014879507949466271
The closest position from 59 to 330 is 0.014865097030103499
The closest position from 60 to 712 is 0.02244878563475836
The closest position from 61 to 191 is 0.02097128927796229
The closest position from 62 to 638 is 0.029062637680201675
The closest position from 63 to 364 is 0.015493255761761856
The closest position from 64 to 374 is 0.0295957159646066
The closest position from 65 to 778 is 0.005018517060509207
The closest position from 66 to 811 is 0.031160473144116962
The closest position from 67 to 350 is 0.006185211356322922
The closest position from 68 to 176 is 0.016167746850844888
The closest position from 69 to 717 is 0.019352067986181744
The closest position from 70 to 584 is 0.04267374014625286
The closest position from 71 to 978 is 0.01858657268099671
The closest position from 72 to 679 is 0.007850748462471746
The closest position from 73 to 949 is 0.017778603988932197
The closest position from 74 to 829 is 0.022581507473533276
The closest position from 75 to 910 is 0.001443063577829911
The closest position from 76 to 562 is 0.006361473401703897
The closest position from 77 to 257 is 0.02240257417121117
The closest position from 78 to 594 is 0.010390221906871347
The closest position from 79 to 929 is 0.01683730452238274
The closest position from 80 to 226 is 0.02808250496098807
The closest position from 81 to 666 is 0.009942890338108664
The closest position from 82 to 450 is 0.01796240615806243
The closest position from 83 to 974 is 0.02904139665265805
The closest position from 84 to 567 is 0.009151605921303119
The closest position from 85 to 892 is 0.016532409802618515
The closest position from 86 to 864 is 0.013861425757576557
The closest position from 87 to 356 is 0.02171256513822852
The closest position from 88 to 280 is 0.018399406394442236
The closest position from 89 to 752 is 5.326245228940294E-4
The closest position from 90 to 452 is 0.009570108595259851
The closest position from 91 to 210 is 0.019427416133708894
The closest position from 92 to 336 is 0.003605958929782801
The closest position from 93 to 606 is 0.016777611895426526
The closest position from 94 to 328 is 0.010495443941487914
The closest position from 95 to 830 is 0.00633060153691015
The closest position from 96 to 678 is 0.024809564646627293
The closest position from 97 to 575 is 0.01859016783317888
The closest position from 98 to 441 is 0.0068156078008375
The closest position from 99 to 462 is 0.017544052517282603
The closest position from 100 to 395 is 0.004368600388787429
The closest position from 101 to 607 is 0.01608425810449124
The closest position from 102 to 100 is 0.022491796049567442
The closest position from 103 to 628 is 0.024485253636089485
The closest position from 104 to 307 is 0.011022249084992665
The closest position from 105 to 630 is 0.027985613488142044
The closest position from 106 to 728 is 0.013076616104981233
The closest position from 107 to 280 is 0.014689048251832348
The closest position from 108 to 996 is 0.01657139691364661
The closest position from 109 to 800 is 0.017394311115229003
The closest position from 110 to 506 is 0.014008694419338386
The closest position from 111 to 803 is 0.008119669010291933
The closest position from 112 to 206 is 0.007497946535390802
The closest position from 113 to 838 is 0.015976603581553325
The closest position from 114 to 286 is 0.010880297136493796
The closest position from 115 to 663 is 0.029037066603464345
The closest position from 116 to 609 is 0.008858325042593073
The closest position from 117 to 865 is 0.024027806105303046
The closest position from 118 to 139 is 0.022324734045557862
The closest position from 119 to 900 is 0.01613731244799747
The closest position from 120 to 973 is 0.004834472191754017
The closest position from 121 to 791 is 0.02518942134024041
The closest position from 122 to 431 is 0.01972052057138646
The closest position from 123 to 730 is 0.02138050522772005
The closest position from 124 to 794 is 0.013611193958297815
The closest position from 125 to 184 is 0.024032068816030382
The closest position from 126 to 668 is 0.001334758587923842
The closest position from 127 to 524 is 0.018852509889271684
The closest position from 128 to 900 is 0.014423385459965968
The closest position from 129 to 575 is 0.033244379869416564
The closest position from 130 to 849 is 0.018805207097104384
The closest position from 131 to 149 is 0.007663547594816452
The closest position from 132 to 583 is 0.0054073988578201195
The closest position from 133 to 135 is 0.02183091912839056
The closest position from 134 to 282 is 0.011143685982173317
The closest position from 135 to 133 is 0.02183091912839056
The closest position from 136 to 796 is 0.016046698251850264
The closest position from 137 to 243 is 0.010555473254488657
The closest position from 138 to 160 is 0.015318599174325938
The closest position from 139 to 118 is 0.022324734045557862
The closest position from 140 to 492 is 0.002682776848783105
The closest position from 141 to 391 is 0.027044431871574882
The closest position from 142 to 403 is 0.007922444831109163
The closest position from 143 to 792 is 0.013176190867051667
The closest position from 144 to 671 is 0.0023180912435192824
The closest position from 145 to 892 is 0.007231471387850019
The closest position from 146 to 370 is 0.004670160187585811
The closest position from 147 to 379 is 0.014422684718486048
The closest position from 148 to 401 is 0.029998437922858234
The closest position from 149 to 131 is 0.007663547594816452
The closest position from 150 to 771 is 0.008231610369802541
The closest position from 151 to 313 is 0.02348121662836388
The closest position from 152 to 944 is 0.011382786553323318
The closest position from 153 to 682 is 0.024442551238900375
The closest position from 154 to 586 is 0.025959997808283754
The closest position from 155 to 564 is 0.027769334611103386
The closest position from 156 to 218 is 0.012866869806202153
The closest position from 157 to 975 is 0.0029710808385864118
The closest position from 158 to 244 is 0.041109516942697336
The closest position from 159 to 540 is 0.005519415826907564
The closest position from 160 to 909 is 0.018914833524136258
The closest position from 161 to 565 is 0.021721868587009658
The closest position from 162 to 852 is 0.028119801092198974
The closest position from 163 to 893 is 0.01903792632113036
The closest position from 164 to 461 is 0.006842916519268187
The closest position from 165 to 644 is 0.017174341337269108
The closest position from 166 to 645 is 0.01891944046391558
The closest position from 167 to 673 is 0.025339170764724247
The closest position from 168 to 403 is 0.01114332924093327
The closest position from 169 to 817 is 0.015369405807861142
The closest position from 170 to 269 is 0.00824995422879321
The closest position from 171 to 977 is 0.031668849337323196
The closest position from 172 to 928 is 0.012053977783838436
The closest position from 173 to 189 is 0.027380580398254112
The closest position from 174 to 329 is 0.008680906360709038
The closest position from 175 to 598 is 0.011182393993393522
The closest position from 176 to 129 is 0.03503909002412711
The closest position from 177 to 364 is 0.019516664283109497
The closest position from 178 to 161 is 0.03375605200710543
The closest position from 179 to 652 is 0.004060109084422843
The closest position from 180 to 207 is 0.01999683351711825
The closest position from 181 to 861 is 0.014195533185551995
The closest position from 182 to 748 is 0.022566257722036024
The closest position from 183 to 425 is 0.020653807879087365
The closest position from 184 to 636 is 0.006853986807289255
The closest position from 185 to 276 is 0.02278963856661678
The closest position from 186 to 798 is 0.021149683633107343
The closest position from 187 to 517 is 0.028632062087118368
The closest position from 188 to 631 is 0.028255342194800435
The closest position from 189 to 331 is 0.010255852551387156
The closest position from 190 to 331 is 0.015438609136708635
The closest position from 191 to 980 is 0.009855343753073401
The closest position from 192 to 586 is 0.020217271809216814
The closest position from 193 to 725 is 0.009415618457905903
The closest position from 194 to 897 is 0.027563298794577768
The closest position from 195 to 736 is 0.015462006467375968
The closest position from 196 to 771 is 0.03411978651069343
The closest position from 197 to 985 is 0.04463740822088675
The closest position from 198 to 919 is 0.006586770632515305
The closest position from 199 to 349 is 0.014707588963616123
The closest position from 200 to 877 is 0.0076945006188607525
The closest position from 201 to 694 is 0.018054340856192144
The closest position from 202 to 892 is 0.01274682824975991
The closest position from 203 to 481 is 0.027993623012295372
The closest position from 204 to 580 is 0.0017832259660371188
The closest position from 205 to 618 is 0.005342066164496319
The closest position from 206 to 655 is 0.00687425204100241
The closest position from 207 to 520 is 0.009881249461017226
The closest position from 208 to 417 is 0.007083444388107336
The closest position from 209 to 303 is 0.028108167886234377
The closest position from 210 to 793 is 0.01834674683941506
The closest position from 211 to 863 is 0.02324905234800886
The closest position from 212 to 967 is 0.00944086622907525
The closest position from 213 to 628 is 0.01698600724127098
The closest position from 214 to 640 is 0.0191314429391239
The closest position from 215 to 506 is 0.018445131800028828
The closest position from 216 to 367 is 0.010694270086479959
The closest position from 217 to 215 is 0.03235801593487624
The closest position from 218 to 378 is 0.025605232453485605
The closest position from 219 to 248 is 0.006863184334930768
The closest position from 220 to 198 is 0.014517166989388514
The closest position from 221 to 562 is 0.013046575653474592
The closest position from 222 to 777 is 0.008580309347525674
The closest position from 223 to 408 is 0.015199661103283304
The closest position from 224 to 908 is 0.014836259107718937
The closest position from 225 to 429 is 0.010485415818696277
The closest position from 226 to 866 is 0.016915526950336428
The closest position from 227 to 946 is 0.01881071775550533
The closest position from 228 to 893 is 0.024379115625493424
The closest position from 229 to 275 is 0.02439084929259689
The closest position from 230 to 789 is 0.006281528438705312
The closest position from 231 to 791 is 0.013734198498092248
The closest position from 232 to 963 is 0.004018669829742916
The closest position from 233 to 703 is 0.017064749606631513
The closest position from 234 to 859 is 0.036586948436100185
The closest position from 235 to 347 is 0.02582251693820104
The closest position from 236 to 335 is 0.01655602607004574
The closest position from 237 to 338 is 0.02077712445269259
The closest position from 238 to 245 is 0.007938991648497642
The closest position from 239 to 796 is 0.026040949060796875
The closest position from 240 to 280 is 0.022151903299566112
The closest position from 241 to 401 is 0.00779587171838996
The closest position from 242 to 501 is 0.013865779067431356
The closest position from 243 to 746 is 0.00457435795956228
The closest position from 244 to 679 is 0.03279054869988792
The closest position from 245 to 238 is 0.007938991648497642
The closest position from 246 to 377 is 0.033399144199077115
The closest position from 247 to 665 is 0.0095856376115975
The closest position from 248 to 942 is 0.04566132585019422
The closest position from 249 to 956 is 0.007534874104920324
The closest position from 250 to 458 is 0.025771870872129538
The closest position from 251 to 904 is 0.013619250929636784
The closest position from 252 to 592 is 0.02659141590303298
The closest position from 253 to 867 is 0.02174153991560964
The closest position from 254 to 976 is 0.033174972596397755
The closest position from 255 to 781 is 0.02316167360522231
The closest position from 256 to 595 is 0.00995188631987536
The closest position from 257 to 898 is 0.03178815651815108
The closest position from 258 to 309 is 0.02949674184339564
The closest position from 259 to 970 is 0.0031666130112494575
The closest position from 260 to 681 is 0.01719437801969741
The closest position from 261 to 434 is 0.013035484472800823
The closest position from 262 to 337 is 0.011379093395236886
The closest position from 263 to 761 is 0.0044465740099462366
The closest position from 264 to 726 is 0.012849486641810801
The closest position from 265 to 303 is 0.02361481774947201
The closest position from 266 to 819 is 0.014280015040443664
The closest position from 267 to 280 is 0.027278881148519923
The closest position from 268 to 455 is 0.021228710251595166
The closest position from 269 to 507 is 0.029251421321488953
The closest position from 270 to 603 is 0.015301651819924647
The closest position from 271 to 652 is 0.016898158659709922
The closest position from 272 to 781 is 0.02842731081030047
The closest position from 273 to 658 is 0.018452901803790108
The closest position from 274 to 869 is 0.010605972119235566
The closest position from 275 to 274 is 0.015259042397655447
The closest position from 276 to 775 is 0.020048868517245137
The closest position from 277 to 308 is 0.004713241800617666
The closest position from 278 to 844 is 0.035864967234146165
The closest position from 279 to 925 is 0.024307925381137685
The closest position from 280 to 874 is 0.033997075111158605
The closest position from 281 to 970 is 0.017001942966196386
The closest position from 282 to 826 is 0.024575395434049303
The closest position from 283 to 346 is 0.023543566687321542
The closest position from 284 to 293 is 0.029261291384913707
The closest position from 285 to 929 is 0.010898455304422816
The closest position from 286 to 631 is 0.028096372437988022
The closest position from 287 to 464 is 0.004787743296013738
The closest position from 288 to 445 is 0.014748301847942732
The closest position from 289 to 921 is 0.017272633910088375
The closest position from 290 to 737 is 0.025515685478909925
The closest position from 291 to 807 is 0.014726356156734132
The closest position from 292 to 927 is 0.01667988210291289
The closest position from 293 to 868 is 0.006896771393720791
The closest position from 294 to 933 is 0.027081011485476147
The closest position from 295 to 671 is 0.004164424441037872
The closest position from 296 to 749 is 0.03751167277998781
The closest position from 297 to 277 is 0.021562218926853748
The closest position from 298 to 368 is 0.03876641215680319
The closest position from 299 to 322 is 0.02257983326507565
The closest position from 300 to 539 is 0.006246984612206893
The closest position from 301 to 790 is 0.012690954231009209
The closest position from 302 to 898 is 0.01551682780667273
The closest position from 303 to 889 is 0.016103677975787094
The closest position from 304 to 420 is 0.021377924232122446
The closest position from 305 to 701 is 0.015729883700624905
The closest position from 306 to 913 is 0.0166115475823475
The closest position from 307 to 595 is 0.020282607630973157
The closest position from 308 to 277 is 0.004713241800617666
The closest position from 309 to 385 is 0.016701079791614535
The closest position from 310 to 480 is 0.0030370513128776125
The closest position from 311 to 669 is 0.0069253358294429
The closest position from 312 to 824 is 0.015631381986923387
The closest position from 313 to 949 is 0.007849621731230149
The closest position from 314 to 694 is 0.02665426609977615
The closest position from 315 to 519 is 0.006171116402007604
The closest position from 316 to 409 is 0.024377271360882066
The closest position from 317 to 991 is 0.0077259378688956815
The closest position from 318 to 663 is 0.030409899271996523
The closest position from 319 to 711 is 0.017984763424330277
The closest position from 320 to 450 is 0.0349326319468913
The closest position from 321 to 543 is 0.019782916329336805
The closest position from 322 to 474 is 0.028015562504580035
The closest position from 323 to 333 is 0.021284362920910228
The closest position from 324 to 436 is 0.0069097522184505475
The closest position from 325 to 327 is 0.013154007533304741
The closest position from 326 to 565 is 0.010208235988407333
The closest position from 327 to 325 is 0.013154007533304741
The closest position from 328 to 895 is 0.023844492887623588
The closest position from 329 to 399 is 0.03684185820929069
The closest position from 330 to 780 is 0.017832388659425553
The closest position from 331 to 823 is 0.025442874918720965
The closest position from 332 to 944 is 0.011081133522061073
The closest position from 333 to 750 is 0.012147573849110338
The closest position from 334 to 349 is 0.03171343534080573
The closest position from 335 to 236 is 0.01655602607004574
The closest position from 336 to 765 is 0.011945856941831907
The closest position from 337 to 760 is 0.008141828181105861
The closest position from 338 to 480 is 0.020067160419955203
The closest position from 339 to 428 is 0.011142407170572922
The closest position from 340 to 813 is 0.006165694386727508
The closest position from 341 to 441 is 0.021183766533236163
The closest position from 342 to 709 is 0.026621390093714437
The closest position from 343 to 690 is 0.011101717027243777
The closest position from 344 to 631 is 0.023496127102631565
The closest position from 345 to 633 is 0.007240773607979162
The closest position from 346 to 283 is 0.023543566687321542
The closest position from 347 to 685 is 0.004598796289812811
The closest position from 348 to 549 is 0.01620739667924278
The closest position from 349 to 334 is 0.03171343534080573
The closest position from 350 to 782 is 0.02354126482431734
The closest position from 351 to 719 is 0.02987556266137635
The closest position from 352 to 823 is 0.018973459798779284
The closest position from 353 to 886 is 0.023246079987934626
The closest position from 354 to 926 is 0.017062821554559186
The closest position from 355 to 617 is 0.030892057371317304
The closest position from 356 to 546 is 0.016088937855123515
The closest position from 357 to 592 is 0.024771104025074122
The closest position from 358 to 600 is 0.0030520754237662656
The closest position from 359 to 984 is 0.0251167803643617
The closest position from 360 to 821 is 0.020371550284151663
The closest position from 361 to 770 is 0.026462481924166587
The closest position from 362 to 983 is 0.04020557021260469
The closest position from 363 to 955 is 0.012097112630790668
The closest position from 364 to 177 is 0.019516664283109497
The closest position from 365 to 591 is 0.017995803886973354
The closest position from 366 to 782 is 0.007016738560461511
The closest position from 367 to 957 is 0.026926744333329467
The closest position from 368 to 588 is 0.03279776406878982
The closest position from 369 to 428 is 0.03298930296187174
The closest position from 370 to 282 is 0.029613389101505235
The closest position from 371 to 753 is 0.037867774487089986
The closest position from 372 to 809 is 0.02604922068649068
The closest position from 373 to 607 is 0.017676052616205393
The closest position from 374 to 582 is 0.039800117667651874
The closest position from 375 to 413 is 0.018173088679462775
The closest position from 376 to 756 is 0.00787984851944343
The closest position from 377 to 846 is 0.027705724872569622
The closest position from 378 to 699 is 0.019125441871996874
The closest position from 379 to 744 is 0.022296934357737764
The closest position from 380 to 733 is 0.016810494586265965
The closest position from 381 to 554 is 0.013815433216701365
The closest position from 382 to 553 is 0.013223004070870535
The closest position from 383 to 885 is 0.03144008077542907
The closest position from 384 to 973 is 0.010045591504238631
The closest position from 385 to 916 is 0.029361627021688593
The closest position from 386 to 451 is 0.021175746399076392
The closest position from 387 to 954 is 0.007377111765803385
The closest position from 388 to 706 is 0.02281959243340367
The closest position from 389 to 705 is 0.009550600958689434
The closest position from 390 to 714 is 0.023449364446765077
The closest position from 391 to 668 is 0.04003068971800704
The closest position from 392 to 529 is 0.014347734777116794
The closest position from 393 to 428 is 0.029306709049654812
The closest position from 394 to 639 is 0.034892894723465795
The closest position from 395 to 476 is 0.005089889359513667
The closest position from 396 to 509 is 0.006806504250030584
The closest position from 397 to 898 is 0.028612659929326132
The closest position from 398 to 997 is 0.005121258669219258
The closest position from 399 to 889 is 0.03851852427779416
The closest position from 400 to 854 is 0.027453749761795085
The closest position from 401 to 937 is 0.012700417448734872
The closest position from 402 to 652 is 0.021035476143284104
The closest position from 403 to 576 is 0.021741148242944208
The closest position from 404 to 613 is 0.019343717219953073
The closest position from 405 to 590 is 0.008506023338051921
The closest position from 406 to 892 is 0.019796281253285024
The closest position from 407 to 675 is 0.01776472452922932
The closest position from 408 to 653 is 0.04319921849613055
The closest position from 409 to 326 is 0.01214317951320463
The closest position from 410 to 666 is 0.01254741130261731
The closest position from 411 to 810 is 0.007846755483525843
The closest position from 412 to 950 is 0.016714903626885935
The closest position from 413 to 375 is 0.018173088679462775
The closest position from 414 to 697 is 0.037836199144099754
The closest position from 415 to 437 is 0.009760375412926004
The closest position from 416 to 966 is 0.03222699236185022
The closest position from 417 to 693 is 0.01950874984383716
The closest position from 418 to 764 is 0.013540389034567335
The closest position from 419 to 727 is 0.019362375371941205
The closest position from 420 to 837 is 0.011426238534152545
The closest position from 421 to 621 is 0.015216921761976095
The closest position from 422 to 530 is 0.028944697787895282
The closest position from 423 to 914 is 0.01970661523458399
The closest position from 424 to 856 is 0.03215049987308551
The closest position from 425 to 510 is 0.014353902863790359
The closest position from 426 to 493 is 0.00796260825553373
The closest position from 427 to 551 is 0.018387613187988268
The closest position from 428 to 424 is 0.045074355877993605
The closest position from 429 to 376 is 0.02411498628801432
The closest position from 430 to 738 is 0.00615058612808479
The closest position from 431 to 122 is 0.01972052057138646
The closest position from 432 to 690 is 0.03317497837085793
The closest position from 433 to 869 is 0.009976501078350962
The closest position from 434 to 980 is 0.016239803765470552
The closest position from 435 to 49 is 0.027087543052722523
The closest position from 436 to 915 is 0.013545953305664302
The closest position from 437 to 720 is 0.02819732609554877
The closest position from 438 to 259 is 0.012975957570112537
The closest position from 439 to 785 is 0.018606477893635905
The closest position from 440 to 980 is 0.05176962831273315
The closest position from 441 to 656 is 0.014074439881511304
The closest position from 442 to 486 is 0.007595198126822894
The closest position from 443 to 733 is 0.02152769223333824
The closest position from 444 to 552 is 0.036197564728271014
The closest position from 445 to 288 is 0.014748301847942732
The closest position from 446 to 828 is 0.015882931025605347
The closest position from 447 to 868 is 0.02324359282552008
The closest position from 448 to 829 is 0.007079079435749087
The closest position from 449 to 46 is 0.0209380907657907
The closest position from 450 to 693 is 0.021139307417898205
The closest position from 451 to 788 is 0.01492531161422266
The closest position from 452 to 90 is 0.009570108595259851
The closest position from 453 to 769 is 0.022719574291770586
The closest position from 454 to 448 is 0.02846604184609619
The closest position from 455 to 764 is 0.01763791251877299
The closest position from 456 to 821 is 0.018113038934766363
The closest position from 457 to 521 is 0.02500814183161873
The closest position from 458 to 602 is 0.016829342942973224
The closest position from 459 to 649 is 0.025003043480928976
The closest position from 460 to 832 is 0.023476011486352404
The closest position from 461 to 764 is 0.014489449942096978
The closest position from 462 to 618 is 0.04011372637916432
The closest position from 463 to 506 is 0.013114481186771023
The closest position from 464 to 868 is 0.017015954478569986
The closest position from 465 to 746 is 0.02972394922892281
The closest position from 466 to 934 is 0.02097759576444122
The closest position from 467 to 897 is 0.007882751719121579
The closest position from 468 to 628 is 0.027005482947900533
The closest position from 469 to 638 is 0.02441256415426507
The closest position from 470 to 949 is 0.028966808764712977
The closest position from 471 to 832 is 0.006517098672997962
The closest position from 472 to 870 is 0.04672162296095403
The closest position from 473 to 753 is 0.010676395371378397
The closest position from 474 to 568 is 0.020226073422320794
The closest position from 475 to 571 is 0.021115935088744316
The closest position from 476 to 732 is 0.020929468061129903
The closest position from 477 to 865 is 0.025383546975419582
The closest position from 478 to 493 is 0.025741251800846132
The closest position from 479 to 989 is 0.031462212056519556
The closest position from 480 to 664 is 0.04033866583613041
The closest position from 481 to 724 is 0.006784203484196965
The closest position from 482 to 515 is 0.009193417167880583
The closest position from 483 to 581 is 0.0033971488320255986
The closest position from 484 to 994 is 0.007714918376739783
The closest position from 485 to 744 is 0.0077184917891692986
The closest position from 486 to 442 is 0.007595198126822894
The closest position from 487 to 696 is 0.025935466639280615
The closest position from 488 to 553 is 0.025110541772660176
The closest position from 489 to 514 is 0.02554578762265211
The closest position from 490 to 972 is 0.01496985660990571
The closest position from 491 to 543 is 0.04084440260024892
The closest position from 492 to 140 is 0.002682776848783105
The closest position from 493 to 862 is 0.02238495461488201
The closest position from 494 to 578 is 0.02380149337525828
The closest position from 495 to 554 is 0.03205787252833286
The closest position from 496 to 697 is 0.019598463413603325
The closest position from 497 to 908 is 0.017809293439800474
The closest position from 498 to 932 is 0.023596205964643558
The closest position from 499 to 843 is 0.03812820766715096
The closest position from 500 to 747 is 0.01804407637459179
The closest position from 501 to 934 is 0.0202027580868956
The closest position from 502 to 727 is 0.02269499996705417
The closest position from 503 to 969 is 0.008292710993852426
The closest position from 504 to 945 is 0.02091933297009728
The closest position from 505 to 787 is 0.019245663129997814
The closest position from 506 to 505 is 0.03692604601527125
The closest position from 507 to 547 is 0.027718918487126893
The closest position from 508 to 911 is 0.011511768768178932
The closest position from 509 to 598 is 0.023505867711650794
The closest position from 510 to 587 is 0.029187416272964707
The closest position from 511 to 885 is 0.006669136529972041
The closest position from 512 to 778 is 0.015906777756304512
The closest position from 513 to 668 is 0.023467549258045152
The closest position from 514 to 601 is 0.012484202185829598
The closest position from 515 to 741 is 0.005144494052526741
The closest position from 516 to 577 is 0.0300826618865399
The closest position from 517 to 187 is 0.028632062087118368
The closest position from 518 to 689 is 0.028162781055857785
The closest position from 519 to 601 is 0.0110721333863795
The closest position from 520 to 912 is 0.022353500086429837
The closest position from 521 to 603 is 0.026506163838690137
The closest position from 522 to 983 is 0.0055148082891383916
The closest position from 523 to 820 is 0.022811037433380237
The closest position from 524 to 961 is 0.016274653944840487
The closest position from 525 to 859 is 0.014694619841304652
The closest position from 526 to 588 is 0.013483446773271448
The closest position from 527 to 551 is 0.012384954351605857
The closest position from 528 to 593 is 0.009259521565999696
The closest position from 529 to 392 is 0.014347734777116794
The closest position from 530 to 422 is 0.028944697787895282
The closest position from 531 to 681 is 0.03595436023039624
The closest position from 532 to 925 is 0.009540316798189206
The closest position from 533 to 666 is 0.018155617044554165
The closest position from 534 to 630 is 0.027680294579446093
The closest position from 535 to 539 is 0.007392835407685366
The closest position from 536 to 741 is 0.045255273697764324
The closest position from 537 to 848 is 0.012575001856008487
The closest position from 538 to 982 is 0.016815185909697588
The closest position from 539 to 941 is 0.017217070493742572
The closest position from 540 to 710 is 0.028033735259661182
The closest position from 541 to 715 is 0.004430069816863641
The closest position from 542 to 699 is 0.012686990472420393
The closest position from 543 to 987 is 0.03116935032353689
The closest position from 544 to 763 is 0.008897174525881273
The closest position from 545 to 761 is 0.018568260598194594
The closest position from 546 to 356 is 0.016088937855123515
The closest position from 547 to 507 is 0.027718918487126893
The closest position from 548 to 577 is 0.005145093349359662
The closest position from 549 to 890 is 0.04970159880050125
The closest position from 550 to 644 is 0.020026683637783118
The closest position from 551 to 753 is 0.0396412165421154
The closest position from 552 to 831 is 0.028619514293326116
The closest position from 553 to 878 is 0.013067267641535743
The closest position from 554 to 495 is 0.03205787252833286
The closest position from 555 to 162 is 0.030460849836923824
The closest position from 556 to 909 is 0.010880161659495692
The closest position from 557 to 724 is 0.018784819063487206
The closest position from 558 to 860 is 0.006147088526133465
The closest position from 559 to 6 is 0.029513229117536323
The closest position from 560 to 824 is 0.00956607430822905
The closest position from 561 to 708 is 0.029295548681148934
The closest position from 562 to 221 is 0.013046575653474592
The closest position from 563 to 648 is 0.010908377372198462
The closest position from 564 to 614 is 0.04333009118558758
The closest position from 565 to 326 is 0.010208235988407333
The closest position from 566 to 973 is 0.013039402663653573
The closest position from 567 to 84 is 0.009151605921303119
The closest position from 568 to 474 is 0.020226073422320794
The closest position from 569 to 922 is 0.023100806816315395
The closest position from 570 to 387 is 0.05514043155355217
The closest position from 571 to 955 is 0.010716090149275884
The closest position from 572 to 707 is 0.023436980815277716
The closest position from 573 to 975 is 0.0186323023938524
The closest position from 574 to 708 is 0.01969456476298389
The closest position from 575 to 850 is 0.0209233230723537
The closest position from 576 to 676 is 0.014567193326216686
The closest position from 577 to 548 is 0.005145093349359662
The closest position from 578 to 600 is 0.032900361913599296
The closest position from 579 to 946 is 0.03949081158503745
The closest position from 580 to 776 is 0.008327097267948454
The closest position from 581 to 870 is 0.031519541065233594
The closest position from 582 to 965 is 0.00545873164189418
The closest position from 583 to 182 is 0.025784139460632776
The closest position from 584 to 708 is 0.03933595082383703
The closest position from 585 to 965 is 0.06849316644666945
The closest position from 586 to 655 is 0.024024455255891336
The closest position from 587 to 510 is 0.029187416272964707
The closest position from 588 to 927 is 0.03573490287239232
The closest position from 589 to 901 is 0.010033940298337596
The closest position from 590 to 680 is 0.03163030312209851
The closest position from 591 to 766 is 0.0059716664098624205
The closest position from 592 to 387 is 0.04459317834381527
The closest position from 593 to 862 is 0.016095691250708165
The closest position from 594 to 692 is 0.03204289752085754
The closest position from 595 to 774 is 0.04144603781683192
The closest position from 596 to 670 is 0.014363533513817209
The closest position from 597 to 757 is 0.022936385660825762
The closest position from 598 to 882 is 0.01890337050408531
The closest position from 599 to 706 is 0.03416341257563053
The closest position from 600 to 912 is 0.04385267008385675
The closest position from 601 to 951 is 0.02384577771428229
The closest position from 602 to 651 is 0.029167087167303585
The closest position from 603 to 937 is 0.014380003339211982
The closest position from 604 to 863 is 0.03462756030238114
The closest position from 605 to 990 is 0.022921325746670704
The closest position from 606 to 960 is 0.012738044307031713
The closest position from 607 to 699 is 0.04376318299294756
The closest position from 608 to 732 is 0.012598277000961992
The closest position from 609 to 116 is 0.008858325042593073
The closest position from 610 to 831 is 0.01277359620983097
The closest position from 611 to 945 is 0.023218142579473047
The closest position from 612 to 306 is 0.016863233027236735
The closest position from 613 to 404 is 0.019343717219953073
The closest position from 614 to 925 is 0.026759819771076467
The closest position from 615 to 654 is 0.027329145817629914
The closest position from 616 to 874 is 0.008232871456796065
The closest position from 617 to 995 is 0.0050739469328298795
The closest position from 618 to 544 is 0.017339593195509078
The closest position from 619 to 774 is 0.032263401940525765
The closest position from 620 to 522 is 0.021500062812294458
The closest position from 621 to 872 is 0.014533551456637895
The closest position from 622 to 845 is 0.014251111140408702
The closest position from 623 to 919 is 0.004571855613671824
The closest position from 624 to 893 is 0.012195184935991582
The closest position from 625 to 988 is 0.017923543697991557
The closest position from 626 to 926 is 0.00649429934872129
The closest position from 627 to 625 is 0.024108461274708143
The closest position from 628 to 468 is 0.027005482947900533
The closest position from 629 to 836 is 0.031640590866822735
The closest position from 630 to 642 is 0.005240488054245795
The closest position from 631 to 344 is 0.023496127102631565
The closest position from 632 to 891 is 0.01724461979022948
The closest position from 633 to 672 is 0.005222566480238484
The closest position from 634 to 998 is 0.04395526430142239
The closest position from 635 to 711 is 0.005359808413788433
The closest position from 636 to 184 is 0.006853986807289255
The closest position from 637 to 738 is 0.027881468255163033
The closest position from 638 to 750 is 0.018922593524119836
The closest position from 639 to 810 is 0.01270501878419227
The closest position from 640 to 233 is 0.03462269416225022
The closest position from 641 to 805 is 0.007684001409717507
The closest position from 642 to 630 is 0.005240488054245795
The closest position from 643 to 818 is 0.014890970655694155
The closest position from 644 to 550 is 0.020026683637783118
The closest position from 645 to 960 is 0.021009425140987602
The closest position from 646 to 654 is 0.03276508572500362
The closest position from 647 to 41 is 0.031657099375158516
The closest position from 648 to 563 is 0.010908377372198462
The closest position from 649 to 459 is 0.025003043480928976
The closest position from 650 to 857 is 0.01640538266564688
The closest position from 651 to 637 is 0.032870152471019654
The closest position from 652 to 991 is 0.02634046976164002
The closest position from 653 to 849 is 0.011968481984692012
The closest position from 654 to 646 is 0.03276508572500362
The closest position from 655 to 586 is 0.024024455255891336
The closest position from 656 to 441 is 0.014074439881511304
The closest position from 657 to 465 is 0.03432004559753091
The closest position from 658 to 813 is 0.02307192847387367
The closest position from 659 to 909 is 0.01858911231540635
The closest position from 660 to 999 is 0.01487744335468045
The closest position from 661 to 765 is 0.03947185676126981
The closest position from 662 to 788 is 0.025964915097652537
The closest position from 663 to 804 is 0.01187803434528336
The closest position from 664 to 480 is 0.04033866583613041
The closest position from 665 to 774 is 0.020709791362426906
The closest position from 666 to 761 is 0.046154954647735995
The closest position from 667 to 840 is 0.016105316202870923
The closest position from 668 to 513 is 0.023467549258045152
The closest position from 669 to 941 is 0.02538805139930072
The closest position from 670 to 862 is 0.023207328026209076
The closest position from 671 to 723 is 0.01239827784930512
The closest position from 672 to 884 is 0.0216050372196063
The closest position from 673 to 991 is 0.0339459461962854
The closest position from 674 to 789 is 0.029240850998052577
The closest position from 675 to 743 is 0.030910616770726186
The closest position from 676 to 868 is 0.04689451176995687
The closest position from 677 to 920 is 0.035968514575966136
The closest position from 678 to 859 is 0.034501529159672945
The closest position from 679 to 747 is 0.0016994287636060517
The closest position from 680 to 745 is 0.01993057942252683
The closest position from 681 to 864 is 0.0713300835611408
The closest position from 682 to 781 is 0.04739067483298602
The closest position from 683 to 821 is 0.01708927111726166
The closest position from 684 to 819 is 0.0017792814523659819
The closest position from 685 to 698 is 0.053197660235004995
The closest position from 686 to 773 is 0.031500986233664326
The closest position from 687 to 908 is 0.018816018383328026
The closest position from 688 to 762 is 0.035563207767821424
The closest position from 689 to 827 is 0.007820784895607969
The closest position from 690 to 910 is 0.012163390180434183
The closest position from 691 to 763 is 0.04215427015874633
The closest position from 692 to 758 is 0.0072747987180360844
The closest position from 693 to 450 is 0.021139307417898205
The closest position from 694 to 776 is 0.038296674901599666
The closest position from 695 to 941 is 0.015595846576556976
The closest position from 696 to 977 is 0.029175990826918848
The closest position from 697 to 930 is 0.03389472655396953
The closest position from 698 to 757 is 0.02635626961589667
The closest position from 699 to 848 is 0.052236526714958015
The closest position from 700 to 922 is 0.06638754266298935
The closest position from 701 to 764 is 0.03154307764672411
The closest position from 702 to 749 is 0.02842852569531186
The closest position from 703 to 787 is 0.04980795149504475
The closest position from 704 to 772 is 0.04084880736259405
The closest position from 705 to 817 is 0.026958994625994232
The closest position from 706 to 997 is 0.042747243869065206
The closest position from 707 to 836 is 0.028863980030465926
The closest position from 708 to 940 is 0.04775541724001917
The closest position from 709 to 763 is 0.043190091073629144
The closest position from 710 to 941 is 0.02577432750607927
The closest position from 711 to 635 is 0.005359808413788433
The closest position from 712 to 853 is 0.0472285199092788
The closest position from 713 to 978 is 0.014654446038364856
The closest position from 714 to 833 is 0.006321817272501588
The closest position from 715 to 922 is 0.014952419771709172
The closest position from 716 to 728 is 0.01164683046597255
The closest position from 717 to 746 is 0.03015997776622633
The closest position from 718 to 902 is 0.026338083351269418
The closest position from 719 to 956 is 0.023200084590489053
The closest position from 720 to 957 is 0.03779673568011793
The closest position from 721 to 765 is 0.0034368023374703413
The closest position from 722 to 795 is 0.03078936640097815
The closest position from 723 to 861 is 0.033747624532301554
The closest position from 724 to 786 is 0.011049899591317454
The closest position from 725 to 704 is 0.04088542728494763
The closest position from 726 to 908 is 0.03582600732426011
The closest position from 727 to 845 is 0.03142633493920411
The closest position from 728 to 716 is 0.01164683046597255
The closest position from 729 to 766 is 0.04855222625948051
The closest position from 730 to 835 is 0.042789021175148045
The closest position from 731 to 744 is 0.0150682470847358
The closest position from 732 to 839 is 0.03427120666020202
The closest position from 733 to 804 is 0.03661109396040218
The closest position from 734 to 956 is 0.021651708755986116
The closest position from 735 to 768 is 0.020407526544724826
The closest position from 736 to 861 is 0.018721404072266665
The closest position from 737 to 903 is 0.021807186576277265
The closest position from 738 to 918 is 0.026849701333020125
The closest position from 739 to 841 is 0.03680279149268564
The closest position from 740 to 936 is 0.026291930731254163
The closest position from 741 to 536 is 0.045255273697764324
The closest position from 742 to 878 is 0.023969588367840057
The closest position from 743 to 966 is 0.051290622837123906
The closest position from 744 to 731 is 0.0150682470847358
The closest position from 745 to 831 is 0.042609737279494825
The closest position from 746 to 819 is 0.0763208048475668
The closest position from 747 to 830 is 0.03848095762258789
The closest position from 748 to 792 is 0.062585010803412
The closest position from 749 to 702 is 0.02842852569531186
The closest position from 750 to 669 is 0.03507984676977014
The closest position from 751 to 888 is 0.026703603707369402
The closest position from 752 to 915 is 0.02476406425568257
The closest position from 753 to 763 is 0.015743863239522322
The closest position from 754 to 793 is 0.05208561657679207
The closest position from 755 to 891 is 0.022519708708642904
The closest position from 756 to 986 is 0.046310260447303485
The closest position from 757 to 896 is 0.02381336094725954
The closest position from 758 to 820 is 0.015346892736512657
The closest position from 759 to 797 is 0.013866667590023758
The closest position from 760 to 622 is 0.015461633153470402
The closest position from 761 to 937 is 0.06764236228683956
The closest position from 762 to 988 is 0.010458964706701587
The closest position from 763 to 753 is 0.015743863239522322
The closest position from 764 to 912 is 0.04828612134195085
The closest position from 765 to 721 is 0.0034368023374703413
The closest position from 766 to 805 is 0.019118084334519076
The closest position from 767 to 959 is 0.04892187095463216
The closest position from 768 to 816 is 0.015263004678364741
The closest position from 769 to 453 is 0.022719574291770586
The closest position from 770 to 994 is 0.015665047728356273
The closest position from 771 to 803 is 0.05713605746776177
The closest position from 772 to 831 is 0.029296171615707824
The closest position from 773 to 828 is 0.018934453099021947
The closest position from 774 to 929 is 0.03242267676397873
The closest position from 775 to 276 is 0.020048868517245137
The closest position from 776 to 694 is 0.038296674901599666
The closest position from 777 to 793 is 0.021628645699073995
The closest position from 778 to 816 is 0.014263815745351465
The closest position from 779 to 824 is 0.026528252124910764
The closest position from 780 to 751 is 0.05273000489376359
The closest position from 781 to 899 is 0.025002313926978624
The closest position from 782 to 797 is 0.03536364373792644
The closest position from 783 to 863 is 0.023132466201693368
The closest position from 784 to 624 is 0.01943278611410695
The closest position from 785 to 439 is 0.018606477893635905
The closest position from 786 to 724 is 0.011049899591317454
The closest position from 787 to 877 is 0.01820307546483844
The closest position from 788 to 752 is 0.03588911383075319
The closest position from 789 to 674 is 0.029240850998052577
The closest position from 790 to 901 is 0.05340481037282701
The closest position from 791 to 231 is 0.013734198498092248
The closest position from 792 to 992 is 0.009979388741674488
The closest position from 793 to 777 is 0.021628645699073995
The closest position from 794 to 645 is 0.026566667080185694
The closest position from 795 to 822 is 0.014731400099091421
The closest position from 796 to 829 is 0.0465198471842102
The closest position from 797 to 782 is 0.03536364373792644
The closest position from 798 to 186 is 0.021149683633107343
The closest position from 799 to 840 is 0.009966867413325853
The closest position from 800 to 857 is 0.011965923168772485
The closest position from 801 to 973 is 0.014923915448696114
The closest position from 802 to 988 is 0.04853073672987352
The closest position from 803 to 861 is 0.052484058799840916
The closest position from 804 to 862 is 0.05037506192362928
The closest position from 805 to 838 is 0.009817296886499436
The closest position from 806 to 885 is 0.021759148882631505
The closest position from 807 to 915 is 0.03850281511906305
The closest position from 808 to 825 is 0.009661761000200797
The closest position from 809 to 811 is 0.03509536844657085
The closest position from 810 to 840 is 0.020636118898444394
The closest position from 811 to 809 is 0.03509536844657085
The closest position from 812 to 41 is 0.023878874922235414
The closest position from 813 to 658 is 0.02307192847387367
The closest position from 814 to 855 is 0.010858025580002775
The closest position from 815 to 860 is 0.011237396147251685
The closest position from 816 to 830 is 0.020058889282977888
The closest position from 817 to 705 is 0.026958994625994232
The closest position from 818 to 972 is 0.023219239444934533
The closest position from 819 to 966 is 0.05712364827753672
The closest position from 820 to 853 is 0.038365098831186946
The closest position from 821 to 683 is 0.01708927111726166
The closest position from 822 to 795 is 0.014731400099091421
The closest position from 823 to 993 is 0.028232910440144185
The closest position from 824 to 910 is 0.027434336371075008
The closest position from 825 to 984 is 0.039224756371119364
The closest position from 826 to 838 is 0.06786958851065468
The closest position from 827 to 884 is 0.004558456681419369
The closest position from 828 to 855 is 0.03051685926599984
The closest position from 829 to 796 is 0.0465198471842102
The closest position from 830 to 816 is 0.020058889282977888
The closest position from 831 to 772 is 0.029296171615707824
The closest position from 832 to 875 is 0.024677565119277663
The closest position from 833 to 953 is 0.038725035431582094
The closest position from 834 to 958 is 0.04675536457222044
The closest position from 835 to 916 is 0.04746075652724236
The closest position from 836 to 707 is 0.028863980030465926
The closest position from 837 to 918 is 0.015127007903062447
The closest position from 838 to 826 is 0.06786958851065468
The closest position from 839 to 781 is 0.04477883271535972
The closest position from 840 to 926 is 0.0699052347788804
The closest position from 841 to 884 is 0.05936010417708788
The closest position from 842 to 959 is 0.05588413985931168
The closest position from 843 to 961 is 0.007242347868481
The closest position from 844 to 328 is 0.028363051855074952
The closest position from 845 to 727 is 0.03142633493920411
The closest position from 846 to 914 is 0.06450493777717758
The closest position from 847 to 850 is 0.01959446510809707
The closest position from 848 to 917 is 0.020003928233036143
The closest position from 849 to 979 is 0.047450531317315
The closest position from 850 to 847 is 0.01959446510809707
The closest position from 851 to 959 is 0.04450747966771636
The closest position from 852 to 162 is 0.028119801092198974
The closest position from 853 to 930 is 0.015447215808794518
The closest position from 854 to 919 is 0.01677725402493277
The closest position from 855 to 856 is 0.025342157641971442
The closest position from 856 to 855 is 0.025342157641971442
The closest position from 857 to 800 is 0.011965923168772485
The closest position from 858 to 875 is 0.03649998528802287
The closest position from 859 to 987 is 0.015160758764931961
The closest position from 860 to 882 is 0.03601039190070803
The closest position from 861 to 824 is 0.07938964157152333
The closest position from 862 to 804 is 0.05037506192362928
The closest position from 863 to 783 is 0.023132466201693368
The closest position from 864 to 908 is 0.06555686824853853
The closest position from 865 to 477 is 0.025383546975419582
The closest position from 866 to 951 is 0.024156864070496453
The closest position from 867 to 302 is 0.04376517416600583
The closest position from 868 to 937 is 0.05220644513465932
The closest position from 869 to 978 is 0.027311245125659096
The closest position from 870 to 920 is 0.019510954174307045
The closest position from 871 to 888 is 0.020404476324683205
The closest position from 872 to 871 is 0.0435817457629874
The closest position from 873 to 978 is 0.0710796390686054
The closest position from 874 to 886 is 0.03208914880487456
The closest position from 875 to 950 is 0.0666488573152907
The closest position from 876 to 967 is 0.052225721459646046
The closest position from 877 to 925 is 0.10216713068807493
The closest position from 878 to 955 is 0.0540134112298774
The closest position from 879 to 968 is 0.039536682571923824
The closest position from 880 to 914 is 0.020015676026135805
The closest position from 881 to 947 is 0.02219091238957287
The closest position from 882 to 986 is 0.08016783066124974
The closest position from 883 to 932 is 0.03355665578801123
The closest position from 884 to 929 is 0.054448151245965075
The closest position from 885 to 967 is 0.06250484726204016
The closest position from 886 to 874 is 0.03208914880487456
The closest position from 887 to 978 is 0.043454827235105555
The closest position from 888 to 967 is 0.03379873280390996
The closest position from 889 to 936 is 0.08164059996058727
The closest position from 890 to 990 is 0.003875258143342119
The closest position from 891 to 755 is 0.022519708708642904
The closest position from 892 to 990 is 0.046755404398098895
The closest position from 893 to 919 is 0.05571736283883939
The closest position from 894 to 902 is 0.006950886113216281
The closest position from 895 to 328 is 0.023844492887623588
The closest position from 896 to 994 is 0.03126317321514393
The closest position from 897 to 708 is 0.058710965092901204
The closest position from 898 to 879 is 0.08696409730696117
The closest position from 899 to 781 is 0.025002313926978624
The closest position from 900 to 982 is 0.021862991284437232
The closest position from 901 to 926 is 0.02174180908925378
The closest position from 902 to 894 is 0.006950886113216281
The closest position from 903 to 737 is 0.021807186576277265
The closest position from 904 to 251 is 0.013619250929636784
The closest position from 905 to 907 is 0.019497493725061408
The closest position from 906 to 954 is 0.11270980771243044
The closest position from 907 to 998 is 0.047216111295454284
The closest position from 908 to 975 is 0.08863491243254076
The closest position from 909 to 995 is 0.04098714459618447
The closest position from 910 to 938 is 0.031205675963558176
The closest position from 911 to 956 is 0.025765566565024146
The closest position from 912 to 960 is 0.10772411845909276
The closest position from 913 to 968 is 0.06821679886125266
The closest position from 914 to 930 is 0.10217184120622133
The closest position from 915 to 949 is 0.058190147999176704
The closest position from 916 to 960 is 0.06137449519473779
The closest position from 917 to 950 is 0.1265330143715891
The closest position from 918 to 956 is 0.07546753058353087
The closest position from 919 to 997 is 0.04098151463180476
The closest position from 920 to 965 is 0.119718726723254
The closest position from 921 to 951 is 0.03757432448269621
The closest position from 922 to 715 is 0.014952419771709172
The closest position from 923 to 986 is 0.061545703806269836
The closest position from 924 to 983 is 0.06049759559234264
The closest position from 925 to 972 is 0.08773394037678386
The closest position from 926 to 947 is 0.026034120224056385
The closest position from 927 to 991 is 0.06968014936782041
The closest position from 928 to 960 is 0.07241531545116581
The closest position from 929 to 928 is 0.07441819490743412
The closest position from 930 to 979 is 0.16917364887732889
The closest position from 931 to 958 is 0.06430549206164982
The closest position from 932 to 996 is 0.03917214194638779
The closest position from 933 to 951 is 0.0453059255318525
The closest position from 934 to 989 is 0.10850375952281513
The closest position from 935 to 936 is 0.007335870586922978
The closest position from 936 to 935 is 0.007335870586922978
The closest position from 937 to 967 is 0.08073327635871821
The closest position from 938 to 910 is 0.031205675963558176
The closest position from 939 to 984 is 0.04631354205844473
The closest position from 940 to 952 is 0.011216158598455763
The closest position from 941 to 887 is 0.06004015295486545
The closest position from 942 to 943 is 0.04939454391174876
The closest position from 943 to 982 is 0.012184470432869965
The closest position from 944 to 940 is 0.02104885533350167
The closest position from 945 to 964 is 0.008695408766064958
The closest position from 946 to 978 is 0.037739423564747035
The closest position from 947 to 997 is 0.05663083900766182
The closest position from 948 to 954 is 0.10224147025443212
The closest position from 949 to 950 is 0.05739776193603317
The closest position from 950 to 977 is 0.047058034899055357
The closest position from 951 to 975 is 0.09872818217208414
The closest position from 952 to 965 is 0.01088075563990894
The closest position from 953 to 995 is 0.026100131536842257
The closest position from 954 to 962 is 0.07844857501162926
The closest position from 955 to 996 is 0.041024043064516055
The closest position from 956 to 980 is 0.058041843256799806
The closest position from 957 to 998 is 0.02643609253352556
The closest position from 958 to 986 is 0.15407804754154747
The closest position from 959 to 974 is 0.07498744669300854
The closest position from 960 to 957 is 0.09717297920438388
The closest position from 961 to 970 is 0.06478887543879876
The closest position from 962 to 992 is 0.021737411531567725
The closest position from 963 to 879 is 0.058255190037745506
The closest position from 964 to 945 is 0.008695408766064958
The closest position from 965 to 952 is 0.01088075563990894
The closest position from 966 to 819 is 0.05712364827753672
The closest position from 967 to 937 is 0.08073327635871821
The closest position from 968 to 984 is 0.030753514224106417
The closest position from 969 to 503 is 0.008292710993852426
The closest position from 970 to 961 is 0.06478887543879876
The closest position from 971 to 6 is 0.010760610439950547
The closest position from 972 to 979 is 0.06118305573319723
The closest position from 973 to 801 is 0.014923915448696114
The closest position from 974 to 999 is 0.06528971026591175
The closest position from 975 to 977 is 0.07052551047626664
The closest position from 976 to 254 is 0.033174972596397755
The closest position from 977 to 975 is 0.07052551047626664
The closest position from 978 to 946 is 0.037739423564747035
The closest position from 979 to 972 is 0.06118305573319723
The closest position from 980 to 956 is 0.058041843256799806
The closest position from 981 to 993 is 0.0981769886563646
The closest position from 982 to 986 is 0.17112200181849543
The closest position from 983 to 924 is 0.06049759559234264
The closest position from 984 to 968 is 0.030753514224106417
The closest position from 985 to 197 is 0.04463740822088675
The closest position from 986 to 982 is 0.17112200181849543
The closest position from 987 to 859 is 0.015160758764931961
The closest position from 988 to 955 is 0.05731548453597292
The closest position from 989 to 997 is 0.10417785262130157
The closest position from 990 to 892 is 0.046755404398098895
The closest position from 991 to 927 is 0.06968014936782041
The closest position from 992 to 962 is 0.021737411531567725
The closest position from 993 to 981 is 0.0981769886563646
The closest position from 994 to 896 is 0.03126317321514393
The closest position from 995 to 953 is 0.026100131536842257
The closest position from 996 to 955 is 0.041024043064516055
The closest position from 997 to 989 is 0.10417785262130157
The closest position from 998 to 957 is 0.02643609253352556
The closest position from 999 to 974 is 0.06528971026591175
